{
  "results": [{
    "id": 284053,
    "video": false,
    "title": "Ming",
    "poster_path": "\/assets\/stills_portrait_18\/Ming.png",
    "original_language": "en",
    "original_title": "Ming",
    "genre_ids": [28, 12, 35, 14, 878],
    "backdrop_path": "\/assets\/stills_landscape_18\/Ming.png",
    "adult": false,
    "overview": "A Chinese woman's experience as a live figure model while abroad. A film by Danski Tang (California Institute of the Arts).",
    "when": "April 14, 3pm - 5pm",
    "where": "Granoff Martinos Auditorium",
    "release_date": "2017-10-25"
  }, {
    "id": 298250,
    "video": false,
    "title": "Life After",
    "poster_path": "\/assets\/stills_portrait_18\/LifeAfter.jpg",
    "original_language": "en",
    "original_title": "Life After",
    "genre_ids": [27, 53],
    "backdrop_path": "\/assets\/stills_landscape_18\/LifeAfter.jpg",
    "adult": false,
    "overview": "While packing up her daughter's apartment, a single mother discovers startling details about her only child, which challenge her ability to process a recent loss. A film by Ria Tobaccowala (New York University Tisch School of the Arts, Kanbar Institute of Film & Television Graduate Film Program).",
    "when": "April 14, 3pm - 5pm",
    "where": "Granoff Martinos Auditorium",
    "release_date": "2017-10-20"
  }, {
    "id": 141052,
    "video": false,
    "title": "A View from the Window",
    "poster_path": "\/assets\/stills_portrait_18\/AViewFromtheWindow.jpg",
    "original_language": "en",
    "original_title": "A View from the Window",
    "genre_ids": [28, 12, 14, 878],
    "backdrop_path": "\/assets\/stills_landscape_18\/AViewFromtheWindow.jpg",
    "adult": false,
    "overview": "An immersive glimpse of a school day through the eyes of deaf children. A film by Azar Kafaei and Chris Filippone (Stanford University).",
    "when": "April 13, 4:30pm - 6pm",
    "where": "Granoff Martinos Auditorium",
    "release_date": "2017-11-15"
  }, {
    "id": 274855,
    "video": false,
    "title": "Sin Cielo",
    "poster_path": "\/assets\/stills_portrait_18\/sincielo.png",
    "original_language": "en",
    "original_title": "Sin Cielo",
    "genre_ids": [28, 878, 53],
    "backdrop_path": "\/assets\/stills_landscape_18\/sunday.jpg",
    "adult": false,
    "overview": "Delia and Memo are like most teenagers; defiant, hormonal, always on their phones; except they live in one of the most dangerous neighborhoods bordering Northern Mexico - where Dollars rule and missing girls' bodies turn up mysteriously in the river or never at all. cw: abduction, sexual violence. A film by Jianna Maarten (American Film Institute).",
    "when": "April 15, 1pm - 2:30pm",
    "where": "Granoff Martinos Auditorium",
    "release_date": "2017-10-13"
  }, {
    "id": 372343,
    "video": false,
    "title": "Iron Hands",
    "poster_path": "\/assets\/stills_portrait_18\/IronHands.jpg",
    "original_language": "en",
    "original_title": "Iron Hands",
    "genre_ids": [80, 18, 27, 9648, 53],
    "backdrop_path": "\/assets\/stills_landscape_18\/IronHands.jpg",
    "adult": false,
    "overview": "As a 12-year-old girl prepares for her final test trying out for the traditionally all-boys Chinese youth Olympic weightlifting team, she makes an unlikely connection with the gym's reclusive groundskeeper. A film by Johnson Cheng (Columbia University).",
    "when": "April 15, 1pm - 2:30pm",
    "where": "Granoff Martinos Auditorium",
    "release_date": "2017-10-12"
  }, {
    "id": 440021,
    "video": false,
    "title": "Still Water Runs Deep",
    "poster_path": "\/assets\/stills_portrait_18\/StillWaterRunsDeep.jpg",
    "original_language": "en",
    "original_title": "Still Water Runs Deep",
    "genre_ids": [27, 9648, 53],
    "backdrop_path": "\/assets\/stills_landscape_18\/StillWaterRunsDeep.jpg",
    "adult": false,
    "overview": "A father must withstand his emotions and preserve his pride when his estranged son mysteriously disappears. A film by Abbesi Akhamie (New York University Tisch School of the Arts).",
    "when": "April 13, 4:30pm - 6pm",
    "where": "Granoff Martinos Auditorium",
    "release_date": "2017-10-12"
  }, {
    "id": 341013,
    "video": false,
    "title": "Scrap",
    "poster_path": "\/assets\/stills_portrait_18\/Scrap.jpg",
    "original_language": "en",
    "original_title": "Scrap",
    "genre_ids": [53, 9648, 28],
    "backdrop_path": "\/assets\/stills_landscape_18\/Scrap.jpg",
    "adult": false,
    "overview": "In the shadow of the global metal trade, a metal scrapper hunts the streets of Oakland searching for his day’s keep. A film by Chris Filippone (Stanford University).",
    "when": "April 13, 4:30pm - 6pm",
    "where": "Granoff Martinos Auditorium",
    "release_date": "2017-07-26"
  }, {
    "id": 459202,
    "video": false,
    "title": "Artificial",
    "poster_path": "\/assets\/stills_portrait_18\/Artificial.png",
    "original_language": "en",
    "original_title": "Artificial",
    "genre_ids": [27, 35],
    "backdrop_path": "\/assets\/stills_landscape_18\/Artificial.png",
    "adult": false,
    "overview": "Many hypothesize that the technological singularity will be an apocalyptic meltdown. But what if it's a social movement? A film by Nate Burke (Brown University).",
    "when": "April 14, 3pm - 5pm",
    "where": "Granoff Martinos Auditorium",
    "release_date": "2017-10-20"
  }, {
    "id": 281338,
    "video": false,
    "title": "Don't Mind Alice",
    "poster_path": "\/assets\/stills_portrait_18\/Don_tMindAlice.jpeg",
    "original_language": "en",
    "original_title": "Don't Mind Alice",
    "genre_ids": [18, 878, 10752],
    "backdrop_path": "\/assets\/stills_landscape_18\/Don_tMindAlice.jpeg",
    "adult": false,
    "overview": "When Riley Marks’s elderly boss dies, her neuroses lead her to believe she is responsible for the woman’s death. A film by Maude Apatow and Olivia Rosenbloom (Northwestern University, Brown University).",
    "when": "April 14, 3pm - 5pm",
    "where": "Granoff Martinos Auditorium",
    "release_date": "2017-07-11"
  }, {
    "id": 335984,
    "video": false,
    "title": "Klarinet Klub",
    "poster_path": "\/assets\/stills_portrait_18\/KlarinetKlub.jpg",
    "original_language": "en",
    "original_title": "Klarinet Klub",
    "genre_ids": [9648, 878, 53],
    "backdrop_path": "\/assets\/stills_landscape_18\/KlarinetKlub.jpg",
    "adult": false,
    "overview": "A boy is pressured by his gynecological father into performing a cesarean section at his school's talent show. cw: blood. A film by Federico Busciglio (Chapman University - Dodge College of Film and Media Arts).",
    "when": "April 13, 4:30pm - 6pm",
    "where": "Granoff Martinos Auditorium",
    "release_date": "2017-10-04"
  }, {
    "id": 399057,
    "video": false,
    "title": "Breaking the Cycle",
    "poster_path": "\/assets\/stills_portrait_18\/BreakingtheCycle.png",
    "original_language": "en",
    "original_title": "Breaking the Cycle",
    "genre_ids": [18, 27, 9648, 53],
    "backdrop_path": "\/assets\/stills_landscape_18\/BreakingtheCycle.png",
    "adult": false,
    "overview": "A glimpse into the private life of a record-breaking Notre Dame student athlete reveals that the biggest challenges aren't overcome on the field. A film by Josephine (Indi) Jackson and Vincent Augusto (University of Notre Dame).",
    "when": "April 15, 1pm - 2:30pm",
    "where": "Granoff Martinos Auditorium",
    "release_date": "2017-10-20"
  }, {
    "id": 413362,
    "video": false,
    "title": "No Such Sunrise",
    "poster_path": "\/assets\/stills_portrait_18\/NOSUCHSUNRISE.png",
    "original_language": "en",
    "original_title": "No Such Sunrise",
    "genre_ids": [53, 18],
    "backdrop_path": "\/assets\/stills_landscape_18\/NOSUCHSUNRISE.png",
    "adult": false,
    "overview": "In the spring of 2017, on a small college campus, an intoxicated white man threatened multiple students of color with racial slurs and an open blade knife. cw: racially motivated violence, slurs. A film by Celle Wright, Dana Brandeis-Simon, and Laura (Jingyi) Li (Oberlin College).",
    "when": "April 14, 3pm - 5pm",
    "where": "Granoff Martinos Auditorium",
    "release_date": "2017-11-10"
  }, {
    "id": 419680,
    "video": false,
    "title": "The Paper Tiger",
    "poster_path": "\/assets\/stills_portrait_18\/ThePaperTiger.jpg",
    "original_language": "en",
    "original_title": "The Paper Tiger",
    "genre_ids": [18, 35],
    "backdrop_path": "\/assets\/stills_landscape_18\/ThePaperTiger.jpg",
    "adult": false,
    "overview": "Who is being preyed upon? A little girl ventures through an endless corridor while being stalked by a peculiar tiger. A film by Hannah S. Kim (Rhode Island School of Design).",
    "when": "April 14, 3pm - 5pm",
    "where": "Granoff Martinos Auditorium",
    "release_date": "2017-11-09"
  }, {
    "id": 395458,
    "video": false,
    "title": "Cry Baby",
    "poster_path": "\/assets\/stills_portrait_18\/cry_baby.png",
    "original_language": "en",
    "original_title": "Cry Baby",
    "genre_ids": [18, 28, 80, 9648],
    "backdrop_path": "\/assets\/stills_landscape_18\/cry_baby.png",
    "adult": false,
    "overview": "The noise of the crying baby is very annoying. A film by Xiner Jiang (Rhode Island School of Design).",
    "when": "April 13, 4:30pm - 6pm",
    "where": "Granoff Martinos Auditorium",
    "release_date": "2017-10-26"
  }, {
    "id": 395991,
    "video": false,
    "title": "Lotus Lantern",
    "poster_path": "\/assets\/stills_portrait_18\/LotusLantern.jpg",
    "original_language": "en",
    "original_title": "Lotus Lantern",
    "genre_ids": [18],
    "backdrop_path": "\/assets\/stills_landscape_18\/LotusLantern.jpg",
    "adult": false,
    "overview": "A peek into the wax lotus. Lotus Lantern is a tribute to the late Chinese singer Zhou Xuan, a missing link between the filmmaker’s queer identity and Chinese heritage. A film by Xingpei Shen (Rhode Island School of Design).",
    "when": "April 15, 1pm - 2:30pm",
    "where": "Granoff Martinos Auditorium",
    "release_date": "2017-10-19"
  }, {
    "id": 396422,
    "video": false,
    "title": "The Little Giraffe",
    "poster_path": "\/assets\/stills_portrait_18\/TheLittleGiraffe.jpg",
    "original_language": "en",
    "original_title": "The Little Giraffe",
    "genre_ids": [53, 27],
    "backdrop_path": "\/assets\/stills_landscape_18\/TheLittleGiraffe.jpg",
    "adult": false,
    "overview": "A hungry little giraffe needs the help of a friend to reach the tasty leaves at the top of the tree. A film by Anna Kamoroff (University of North Carolina School of the Arts).",
    "when": "April 14, 3pm - 5pm",
    "where": "Granoff Martinos Auditorium",
    "release_date": "2017-08-03"
  }, {
    "id": 355547,
    "video": false,
    "title": "Matter Out of Place",
    "poster_path": "\/assets\/stills_portrait_18\/MatterOutofPlace.jpg",
    "original_language": "en",
    "original_title": "Matter Out of Place",
    "genre_ids": [35, 16, 12],
    "backdrop_path": "\/assets\/stills_landscape_18\/MatterOutofPlace.jpg",
    "adult": false,
    "overview": "Intimate portrait. Blurred line. Exploration of presence and absence. A film by Oona Taper (School of the Museum of Fine Arts in Boston).",
    "when": "April 15, 1pm - 2:30pm",
    "where": "Granoff Martinos Auditorium",
    "release_date": "2017-11-15"
  }, {
    "id": 383709,
    "video": false,
    "title": "Sober Octaves",
    "poster_path": "\/assets\/stills_portrait_18\/SoberOctaves.png",
    "original_language": "en",
    "original_title": "Sober Octaves",
    "genre_ids": [18],
    "backdrop_path": "\/assets\/stills_landscape_18\/SoberOctaves.png",
    "adult": false,
    "overview": "Sober Octaves explores the nuances of fighting against the status quo from the perspective of three young black men. Computer-generated interludes and live-action narratives aid the storytelling of this visual album. cw: flashing lights",
    "when": "April 13, 4:30pm - 6pm",
    "where": "Granoff Martinos Auditorium",
    "release_date": "2017-10-20"
  }, {
    "id": 76338,
    "video": false,
    "title": "Silvia in the Waves",
    "poster_path": "\/assets\/stills_portrait_18\/Silviainthewaves_still.jpg",
    "original_language": "en",
    "original_title": "Silvia in the Waves",
    "genre_ids": [28, 12, 14],
    "backdrop_path": "\/assets\/stills_landscape_18\/Silviainthewaves_still.jpg",
    "adult": false,
    "overview": "The course of mourning carries Silvia, a 40 years old trans woman, and her family through the waves of memory and rebirth, death and survival. cw: suicide. A film by Giovana Olmos (Concordia University).",
    "when": "April 13, 4:30pm - 6pm",
    "where": "Granoff Martinos Auditorium",
    "release_date": "2013-10-29"
  }, {
    "id": 383709,
    "video": false,
    "title": "Pause",
    "poster_path": "\/assets\/stills_portrait_18\/Pause.png",
    "original_language": "en",
    "original_title": "Pause",
    "genre_ids": [18],
    "backdrop_path": "\/assets\/stills_landscape_18\/Pause.png",
    "adult": false,
    "overview": "Third party’s word can turn the young couple’s mood. A film by Pegah Ansari (Tehran University of Art).",
    "when": "April 14, 3pm - 5pm",
    "where": "Granoff Martinos Auditorium",
    "release_date": "2017-10-20"
  }, {
    "id": 383709,
    "video": false,
    "title": "National Pride",
    "poster_path": "\/assets\/stills_portrait_18\/NationalPride.png",
    "original_language": "en",
    "original_title": "National Pride",
    "genre_ids": [18],
    "backdrop_path": "\/assets\/stills_landscape_18\/NationalPride.png",
    "adult": false,
    "overview": "1960. The Spain Cyclist Tour is passing by the little town of Sacristán and, with it, the winner of the France, Spain and Italy Tours, Alberto Indiana! Federico is going to be able of see his idol closely. Maybe, too closely. A film by Víctor Ruiz Junquera (Escuela de Cinematografía y del Audiovisual de la Comunidad de Madrid).",
    "when": "April 15, 1pm - 2:30pm",
    "where": "Granoff Martinos Auditorium",
    "release_date": "2017-10-20"
  }, {
    "id": 383709,
    "video": false,
    "title": "PUP",
    "poster_path": "\/assets\/stills_portrait_18\/PUP.jpg",
    "original_language": "en",
    "original_title": "PUP",
    "genre_ids": [18],
    "backdrop_path": "\/assets\/stills_landscape_18\/PUP.jpg",
    "adult": false,
    "overview": "From the age of two, cubs are forced to leave the pride by lionesses. Only the strong turn into adults. A film by Jesús Rivera Soriano (Escuela de Cinematografía y del Audiovisual de la Comunidad de Madrid).",
    "when": "April 15, 1pm - 2:30pm",
    "where": "Granoff Martinos Auditorium",
    "release_date": "2017-10-20"
  }, {
    "id": 383709,
    "video": false,
    "title": "The Little Dictator",
    "poster_path": "\/assets\/stills_portrait_18\/TheLittleDictator.png",
    "original_language": "en",
    "original_title": "The Little Dictator",
    "genre_ids": [18],
    "backdrop_path": "\/assets\/stills_landscape_18\/TheLittleDictator.png",
    "adult": false,
    "overview": "Professor Yossi Kleinmann is an uncharismatic history professor lecturing on political leaders in totalitarian regimes. At the 90th birthday celebration of his wife's grandmother, a Holocaust survivor, Yossi finds himself in an unexpected situation which forces him to confront history, his family and himself. A film by Nurith Cohn (Maaleh School of Television, Film and the Arts).",
    "when": "April 14, 3pm - 5pm",
    "where": "Granoff Martinos Auditorium",
    "release_date": "2017-10-20"
  }, {
    "id": 383709,
    "video": false,
    "title": "Schoolyard Blues",
    "poster_path": "\/assets\/stills_portrait_18\/schoolyardBlues.jpg",
    "original_language": "en",
    "original_title": "Schoolyard Blues",
    "genre_ids": [18],
    "backdrop_path": "\/assets\/stills_landscape_18\/schoolyardBlues.jpg",
    "adult": false,
    "overview": "It's John's first day at school. Unexpectedly his eleven-year-old big brother Mika shows up to follow him to assembly. But Mika has plans other than just taking John to school. Mika sees it as his mission to teach John the hard facts of the world, starting with the merciless demands of the schoolyard. A film by Maria Eriksson-Hecht (Stockholm Academy of Dramatic Arts).",
    "when": "April 14, 3pm - 5pm",
    "where": "Granoff Martinos Auditorium",
    "release_date": "2017-10-20"
  }, {
    "id": 383709,
    "video": false,
    "title": "Grapefruit",
    "poster_path": "\/assets\/stills_portrait_18\/Grapefruit.png",
    "original_language": "en",
    "original_title": "Grapefruit",
    "genre_ids": [18],
    "backdrop_path": "\/assets\/stills_landscape_18\/Grapefruit.png",
    "adult": false,
    "overview": "Winner of IFF's 48-Hour Film Festival. An intern listens to a series of voicemails during his daily juicing process. A film by Colter Fellows, Leopold Brekke, and Kaori Yasunaga (Rhode Island School of Design).",
    "when": "April 14, 3pm - 5pm",
    "where": "Granoff Martinos Auditorium",
    "release_date": "2017-10-20"
  }],
  "page": 1,
  "total_results": 1128,
  "dates": {
    "maximum": "2018-4-16",
    "minimum": "2017-10-03"
  },
  "total_pages": 57
}
